<?xml version="1.0" encoding="UTF-8" standalone="no"?>
<!-- Created with Inkscape (http://www.inkscape.org/) -->

<svg
   width="85.104118mm"
   height="106.4249mm"
   viewBox="0 0 85.104118 106.4249"
   version="1.1"
   id="svg8"
   inkscape:version="1.1.2 (0a00cf5339, 2022-02-04)"
   sodipodi:docname="text-as-path.svg"
   xmlns:inkscape="http://www.inkscape.org/namespaces/inkscape"
   xmlns:sodipodi="http://sodipodi.sourceforge.net/DTD/sodipodi-0.dtd"
   xmlns="http://www.w3.org/2000/svg"
   xmlns:svg="http://www.w3.org/2000/svg"
   xmlns:rdf="http://www.w3.org/1999/02/22-rdf-syntax-ns#"
   xmlns:cc="http://creativecommons.org/ns#"
   xmlns:dc="http://purl.org/dc/elements/1.1/">
  <defs
     id="defs2" />
  <sodipodi:namedview
     id="base"
     pagecolor="#ffffff"
     bordercolor="#666666"
     borderopacity="1.0"
     inkscape:pageopacity="0.0"
     inkscape:pageshadow="2"
     inkscape:zoom="1.4084795"
     inkscape:cx="48.279012"
     inkscape:cy="205.89579"
     inkscape:document-units="mm"
     inkscape:current-layer="g1006"
     showgrid="false"
     fit-margin-top="0"
     fit-margin-left="0"
     fit-margin-right="0"
     fit-margin-bottom="0"
     inkscape:window-width="1920"
     inkscape:window-height="993"
     inkscape:window-x="0"
     inkscape:window-y="53"
     inkscape:window-maximized="1"
     inkscape:pagecheckerboard="1" />
  <metadata
     id="metadata5">
    <rdf:RDF>
      <cc:Work
         rdf:about="">
        <dc:format>image/svg+xml</dc:format>
        <dc:type
           rdf:resource="http://purl.org/dc/dcmitype/StillImage" />
      </cc:Work>
    </rdf:RDF>
  </metadata>
  <g
     inkscape:label="Vrstva 1"
     inkscape:groupmode="layer"
     id="layer1"
     transform="translate(-43.183781,-112.80243)">
    <g
       id="g1006">
      <circle
         r="1.6703016"
         cy="114.48943"
         cx="82.333244"
         id="path878"
         style="opacity:1;fill:#007cb0;fill-opacity:1;fill-rule:nonzero;stroke:none;stroke-width:0;stroke-linecap:square;stroke-miterlimit:4;stroke-dasharray:none;stroke-dashoffset:0;stroke-opacity:1" />
      <circle
         style="opacity:1;fill:#007cb0;fill-opacity:1;fill-rule:nonzero;stroke:none;stroke-width:0;stroke-linecap:square;stroke-miterlimit:4;stroke-dasharray:none;stroke-dashoffset:0;stroke-opacity:1"
         id="circle880"
         cx="89.749977"
         cy="114.47273"
         r="1.6703016" />
      <circle
         r="4.7439013"
         cy="134.7184"
         cx="86.208656"
         id="circle882"
         style="opacity:1;fill:#007cb0;fill-opacity:1;fill-rule:nonzero;stroke:none;stroke-width:0;stroke-linecap:square;stroke-miterlimit:4;stroke-dasharray:none;stroke-dashoffset:0;stroke-opacity:1" />
      <path
         d="m 82.246464,140.16577 c 2.615103,-0.003 8.77499,0.005 7.880745,0.002 0,0 0.63977,0.0497 0.844655,-0.15523 0.204885,-0.20488 0.200453,-0.70158 0.200453,-0.70158 l 0.0098,-8.98798 c 0,0 0.05902,-0.27839 -0.243647,-0.52204 -0.30267,-0.24365 -0.60066,-0.23959 -0.60066,-0.23959 l -1.435244,0.004 c 0,0 -0.276752,-3.5e-4 -0.398877,-0.21633 -0.04001,-0.0708 -0.05946,-0.0948 -0.08242,-0.29103 -0.04419,-0.37772 -0.06943,-1.04186 -0.05527,-1.44013 0,0 -0.03341,-2.00453 -2.171565,-2.07134 -2.138156,-0.0668 -2.307227,1.85132 -2.307227,1.85132 l -0.08066,1.52295 c 0,0 0.0057,0.38573 -0.200451,0.53084 -0.206185,0.14511 -0.620929,0.11371 -0.620929,0.11371 l -1.067045,0.0236 c 0,0 -0.347243,-0.0682 -0.548378,0.16669 -0.201135,0.23488 -0.192346,0.61045 -0.192346,0.61045 l -0.149502,8.93905 c 0,0 -0.04574,0.35887 0.210236,0.61485 0.255977,0.25598 0.500437,0.25749 0.500437,0.25749 z m -9.816423,3.38811 h 26.860587 c 0,0 -2.906556,-1.40317 -3.407685,-2.17157 -0.501131,-0.76839 -1.002263,-0.86862 -1.369759,-2.67269 -0.367495,-1.80407 -4.443354,-21.31475 -4.443354,-21.31475 h -7.851042 c 0,0 -4.009043,20.07863 -4.476766,21.68225 -0.467719,1.60361 -1.737251,2.40542 -3.040189,3.17382 -1.302941,0.7684 -2.271792,1.30294 -2.271792,1.30294 z"
         style="fill:#007cb0;fill-opacity:1;fill-rule:evenodd;stroke:none;stroke-width:0.2;stroke-linecap:butt;stroke-linejoin:miter;stroke-miterlimit:4;stroke-dasharray:none;stroke-opacity:1"
         id="path890"
         inkscape:connector-curvature="0" />
      <path
         id="rect897"
         transform="scale(0.26458333)"
         d="m 295.13867,555.90039 c -4.49624,0.0113 -4.51367,3.53516 -4.51367,3.53516 v 39.92578 a 64.110328,64.110328 0 0 1 8.6543,-4.41016 l 0.35937,-35.57812 c 0,0 -0.004,-3.484 -4.5,-3.47266 z"
         style="opacity:1;fill:#007cb0;fill-opacity:1;fill-rule:nonzero;stroke:none;stroke-width:0.77321804;stroke-linecap:square;stroke-miterlimit:4;stroke-dasharray:none;stroke-dashoffset:0;stroke-opacity:1"
         inkscape:connector-curvature="0" />
      <path
         id="rect897-7"
         transform="scale(0.26458333)"
         d="m 306.61328,553.36133 c -4.49624,0.0113 -4.51367,3.53711 -4.51367,3.53711 v 36.94922 a 64.110328,64.110328 0 0 1 8.66601,-2.45313 l 0.34766,-34.56055 c 0,0 -0.004,-3.48399 -4.5,-3.47265 z"
         style="opacity:1;fill:#007cb0;fill-opacity:1;fill-rule:nonzero;stroke:none;stroke-width:0.77321804;stroke-linecap:square;stroke-miterlimit:4;stroke-dasharray:none;stroke-dashoffset:0;stroke-opacity:1"
         inkscape:connector-curvature="0" />
      <path
         id="path917"
         transform="scale(0.26458333)"
         d="m 318.57812,551.93359 c -4.49624,0.0113 -4.51367,3.53516 -4.51367,3.53516 v 35.28906 a 64.110328,64.110328 0 0 1 8.66407,-0.76953 l 0.3496,-34.58203 c 0,0 -0.004,-3.48399 -4.5,-3.47266 z"
         style="opacity:1;fill:#007cb0;fill-opacity:1;fill-rule:nonzero;stroke:none;stroke-width:0.77321804;stroke-linecap:square;stroke-miterlimit:4;stroke-dasharray:none;stroke-dashoffset:0;stroke-opacity:1"
         inkscape:connector-curvature="0" />
      <path
         id="path919"
         transform="scale(0.26458333)"
         d="m 330.54297,552.29102 c -4.49624,0.0113 -4.51367,3.53515 -4.51367,3.53515 v 34.22266 a 64.110328,64.110328 0 0 1 8.6582,0.87109 l 0.35547,-35.15625 c 0,0 -0.004,-3.48399 -4.5,-3.47265 z"
         style="opacity:1;fill:#007cb0;fill-opacity:1;fill-rule:nonzero;stroke:none;stroke-width:0.77321804;stroke-linecap:square;stroke-miterlimit:4;stroke-dasharray:none;stroke-dashoffset:0;stroke-opacity:1"
         inkscape:connector-curvature="0" />
      <path
         id="path921"
         transform="scale(0.26458333)"
         d="m 342.41797,553.54102 c -4.49624,0.0113 -4.51367,3.53515 -4.51367,3.53515 v 34.45703 a 64.110328,64.110328 0 0 1 8.63867,2.60352 l 0.375,-37.12305 c 0,0 -0.004,-3.48399 -4.5,-3.47265 z"
         style="opacity:1;fill:#007cb0;fill-opacity:1;fill-rule:nonzero;stroke:none;stroke-width:0.77321804;stroke-linecap:square;stroke-miterlimit:4;stroke-dasharray:none;stroke-dashoffset:0;stroke-opacity:1"
         inkscape:connector-curvature="0" />
      <path
         id="path923"
         transform="scale(0.26458333)"
         d="m 354.38281,556.93359 c -4.49624,0.0113 -4.51367,3.53516 -4.51367,3.53516 v 34.99219 a 64.110328,64.110328 0 0 1 8.61133,4.65429 l 0.40039,-39.70898 c 0,0 -0.002,-3.48399 -4.49805,-3.47266 z"
         style="opacity:1;fill:#007cb0;fill-opacity:1;fill-rule:nonzero;stroke:none;stroke-width:0.77321804;stroke-linecap:square;stroke-miterlimit:4;stroke-dasharray:none;stroke-dashoffset:0;stroke-opacity:1"
         inkscape:connector-curvature="0" />
      <path
         sodipodi:nodetypes="ccsccczsccscccccccccc"
         inkscape:connector-curvature="0"
         transform="scale(0.26458333)"
         id="circle956"
         d="m 286.82422,557.79297 c -40.18647,15.14481 -66.80888,53.57599 -66.86328,96.52148 5.4e-4,57.04367 46.24344,103.28657 103.28711,103.28711 57.04443,5.4e-4 103.28852,-46.24268 103.28906,-103.28711 -0.005,-3.38528 -0.17643,-6.76827 -0.51367,-10.13672 -2.53895,2.32265 -12.46043,9.35219 -20.03632,12.06807 -11.93337,3.3441 -23.45655,2.62989 -37.06225,1.0168 -13.60571,-1.6131 -37.16862,-11.71236 -48.88434,-11.49133 -17.32166,0.32679 -27.96138,8.29548 -35.26614,12.00892 l 0.26337,37.02858 c 6.20991,-5.19994 21.01515,-13.0103 38.85142,-12.43832 20.58323,0.66008 19.798,9.68967 47.59471,14.63498 -11.74966,13.01059 -28.73585,21.13907 -47.52491,21.16059 -35.40641,-5.3e-4 -64.10885,-28.70297 -64.10937,-64.10938 0.0316,-20.72538 10.08024,-40.15701 26.97461,-52.16211 z m 75.3164,0.90625 v 43.95117 c 2.70638,2.03855 5.24689,4.28844 7.59766,6.72852 l 27.99805,-26.375 c -10.02402,-10.51463 -22.15331,-18.79649 -35.59571,-24.30469 z"
         style="opacity:1;fill:#007cb0;fill-opacity:1;fill-rule:nonzero;stroke:none;stroke-width:1.18002033;stroke-linecap:square;stroke-miterlimit:4;stroke-dasharray:none;stroke-dashoffset:0;stroke-opacity:1" />
      <rect
         y="160.5589"
         x="75.436829"
         height="8.1517324"
         width="20.780205"
         id="rect967"
         style="opacity:1;fill:#007cb0;fill-opacity:1;fill-rule:nonzero;stroke:none;stroke-width:0.2;stroke-linecap:square;stroke-miterlimit:4;stroke-dasharray:none;stroke-dashoffset:0;stroke-opacity:1" />
      <g
         aria-label="GYMNÁZIUM J. S. MACHARA"
         id="text975"
         style="font-weight:bold;font-size:10.5833px;line-height:125%;font-family:'DejaVu Serif';-inkscape-font-specification:'DejaVu Serif Bold';letter-spacing:0px;word-spacing:0px;fill:#007cb0;stroke-width:0.264583px;fill-opacity:1">
        <path
           d="m 53.252106,185.5241 0.813809,1.89806 -2.370313,1.01629 q -0.593582,-0.65354 -0.993393,-1.58603 -0.290186,-0.6768 -0.230545,-1.26857 0.06093,-0.58876 0.462238,-1.05639 0.402597,-0.46461 1.127528,-0.77544 0.706883,-0.30308 1.329593,-0.24602 0.622709,0.0571 1.109245,0.46094 0.490834,0.4056 0.801654,1.13053 0.170243,0.39706 0.253677,0.79929 0.08343,0.40223 0.08091,0.74516 l -1.093697,0.0238 q 0.03214,-0.57285 -0.212906,-1.14437 -0.22441,-0.5234 -0.685548,-0.66041 -0.458131,-0.13831 -1.086805,0.13124 -0.616642,0.26439 -0.831882,0.65936 -0.210942,0.39669 -0.0033,0.88098 0.110915,0.25869 0.26007,0.46537 l 0.688834,-0.29534 -0.336615,-0.78509 z"
           style="font-weight:800;font-size:6.70278px;font-family:'Open Sans';-inkscape-font-specification:'Open Sans Ultra-Bold';fill:#007cb0;fill-opacity:1"
           id="path1793" />
        <path
           d="m 55.421149,189.38987 1.949676,-0.16011 0.692555,1.21759 -3.313078,0.0734 -1.624411,0.92395 -0.644011,-1.13225 1.590271,-0.90453 1.790585,-2.82954 0.695792,1.22329 z"
           style="font-weight:800;font-size:6.70278px;font-family:'Open Sans';-inkscape-font-specification:'Open Sans Ultra-Bold';fill:#007cb0;fill-opacity:1"
           id="path1795" />
        <path
           d="m 55.404489,194.94344 2.183276,-2.8404 -0.01756,-0.0237 q -0.663185,0.57814 -1.057307,0.87085 l -1.668449,1.23912 -0.68298,-0.91962 3.841374,-2.8529 1.026421,1.38205 -2.132155,2.8269 0.01561,0.021 3.310783,-1.2399 1.028372,1.38468 -3.841375,2.8529 -0.708347,-0.95377 1.684214,-1.25083 q 0.0762,-0.0566 0.295553,-0.21135 0.211474,-0.1489 0.810984,-0.5493 l -0.01756,-0.0237 -3.337135,1.27579 z"
           style="font-weight:800;font-size:6.70278px;font-family:'Open Sans';-inkscape-font-specification:'Open Sans Ultra-Bold';fill:#007cb0;fill-opacity:1"
           id="path1797" />
        <path
           d="m 61.319783,201.6473 -1.196039,-1.20151 1.156133,-3.61686 -0.02078,-0.0209 q -0.505859,0.59129 -0.816676,0.90069 l -1.52857,1.5216 -0.808134,-0.81183 3.391152,-3.37569 1.191421,1.19687 -1.128278,3.57989 0.01385,0.0139 q 0.498847,-0.56123 0.791108,-0.85215 l 1.533209,-1.52622 0.812752,0.81647 z"
           style="font-weight:800;font-size:6.70278px;font-family:'Open Sans';-inkscape-font-specification:'Open Sans Ultra-Bold';fill:#007cb0;fill-opacity:1"
           id="path1799" />
        <path
           d="m 61.702579,202.00604 z m 2.74715,2.09173 0.355771,-0.85623 -1.236868,-0.94177 -0.735946,0.56676 -1.130107,-0.86049 4.152653,-2.87683 1.372273,1.04487 -1.652877,4.78021 z m 0.784638,-1.86248 0.311795,-0.74986 q 0.121274,-0.29433 0.282439,-0.67348 0.165752,-0.37976 0.241451,-0.5278 -0.09555,0.0877 -0.424228,0.36807 -0.348384,0.29006 -1.221281,0.96645 z m 0.984159,-3.28607 0.0575,-0.0755 q 0.694059,-0.11736 0.932682,-0.16603 0.203912,-0.0463 0.347578,-0.0891 l 1.114483,0.84858 -0.04164,0.0547 q -0.33062,0.007 -0.891456,-0.0124 -0.560836,-0.0198 -0.842127,-0.0447 z"
           style="font-weight:800;font-size:6.70278px;font-family:'Open Sans';-inkscape-font-specification:'Open Sans Ultra-Bold';fill:#007cb0;fill-opacity:1"
           id="path1801" />
        <path
           d="m 68.987488,206.91188 -3.223808,-1.87171 0.400964,-0.69062 3.268954,-1.50431 -1.749177,-1.01555 0.52421,-0.9029 3.136067,1.82077 -0.399321,0.68779 -3.270598,1.50714 1.83692,1.0665 z"
           style="font-weight:800;font-size:6.70278px;font-family:'Open Sans';-inkscape-font-specification:'Open Sans Ultra-Bold';fill:#007cb0;fill-opacity:1"
           id="path1803" />
        <path
           d="m 69.621418,207.17884 2.01302,-4.34085 1.178739,0.54663 -2.013019,4.34084 z"
           style="font-weight:800;font-size:6.70278px;font-family:'Open Sans';-inkscape-font-specification:'Open Sans Ultra-Bold';fill:#007cb0;fill-opacity:1"
           id="path1805" />
        <path
           d="m 77.130299,204.96194 -0.929693,2.72592 q -0.201786,0.59165 -0.570537,0.93271 -0.368751,0.34106 -0.880527,0.41203 -0.51072,0.0679 -1.139541,-0.14659 -0.61643,-0.21024 -0.975162,-0.56773 -0.354578,-0.35953 -0.438154,-0.84448 -0.08252,-0.48805 0.119266,-1.0797 l 0.939202,-2.7538 1.229762,0.41942 -0.90645,2.65777 q -0.16164,0.47394 -0.06008,0.75409 0.101556,0.28015 0.457784,0.40164 0.374815,0.12784 0.614984,-0.0289 0.244323,-0.15873 0.411245,-0.64816 l 0.904337,-2.65158 z"
           style="font-weight:800;font-size:6.70278px;font-family:'Open Sans';-inkscape-font-specification:'Open Sans Ultra-Bold';fill:#007cb0;fill-opacity:1"
           id="path1807" />
        <path
           d="m 78.61127,210.13894 -0.378164,-3.56253 -0.02903,-0.005 q -0.08145,0.87603 -0.164953,1.3598 l -0.353475,2.04798 -1.128805,-0.19483 0.813828,-4.71518 1.696432,0.2928 0.405866,3.51749 0.0258,0.004 1.542129,-3.18127 1.699657,0.29336 -0.813828,4.71518 -1.170732,-0.20207 0.356815,-2.06732 q 0.01614,-0.0935 0.06824,-0.35688 0.05043,-0.25368 0.208367,-0.95709 l -0.02903,-0.005 -1.536464,3.22543 z"
           style="font-weight:800;font-size:6.70278px;font-family:'Open Sans';-inkscape-font-specification:'Open Sans Ultra-Bold';fill:#007cb0;fill-opacity:1"
           id="path1809" />
        <path
           d="m 84.302813,212.29824 q -0.350136,-0.006 -0.669576,-0.0809 l 0.01822,-1.0046 0.221745,0.0466 q 0.123873,0.0284 0.254765,0.0308 0.215972,0.004 0.348407,-0.0788 0.132375,-0.0794 0.194659,-0.26489 0.06228,-0.18545 0.06798,-0.49959 l 0.08028,-4.42743 1.299105,0.0236 -0.07826,4.31617 q -0.01768,0.97514 -0.455373,1.46476 -0.434418,0.48968 -1.281945,0.47431 z"
           style="font-weight:800;font-size:6.70278px;font-family:'Open Sans';-inkscape-font-specification:'Open Sans Ultra-Bold';fill:#007cb0;fill-opacity:1"
           id="path1811" />
        <path
           d="m 86.814378,210.27964 q -0.0098,-0.30422 0.161704,-0.47019 0.174653,-0.16934 0.514853,-0.18028 0.323844,-0.0104 0.502474,0.14757 0.178631,0.15798 0.18831,0.45892 0.0095,0.29441 -0.165081,0.46702 -0.171382,0.16924 -0.485412,0.17934 -0.327115,0.0105 -0.518831,-0.14704 -0.188549,-0.16094 -0.198017,-0.45534 z"
           style="font-weight:800;font-size:6.70278px;font-family:'Open Sans';-inkscape-font-specification:'Open Sans Ultra-Bold';fill:#007cb0;fill-opacity:1"
           id="path1813" />
        <path
           d="m 93.61475,208.68876 q 0.06691,0.44005 -0.107435,0.81747 -0.171601,0.37369 -0.560465,0.62482 -0.398079,0.25585 -0.957847,0.34096 -0.469169,0.0713 -0.799339,0.0553 -0.330661,-0.0192 -0.705203,-0.13112 l -0.173179,-1.13895 q 0.394164,0.13207 0.805149,0.17882 0.410493,0.0435 0.74053,-0.007 0.27503,-0.0418 0.39666,-0.15632 0.124373,-0.11822 0.09977,-0.28 -0.01427,-0.0938 -0.07686,-0.15715 -0.06309,-0.0666 -0.194613,-0.126 -0.15516,-0.0625 -0.677199,-0.20821 -0.487714,-0.13772 -0.750692,-0.29967 -0.262978,-0.16195 -0.415584,-0.40358 -0.153099,-0.24487 -0.20525,-0.58785 -0.06543,-0.43034 0.100888,-0.77343 0.165831,-0.34633 0.54196,-0.57236 0.37613,-0.22602 0.929426,-0.31015 0.737729,-0.11218 1.549765,0.11195 l -0.241458,1.04641 q -0.706319,-0.20379 -1.191667,-0.12999 -0.239438,0.0364 -0.346366,0.13873 -0.103692,0.10184 -0.08303,0.23774 0.02066,0.1359 0.183487,0.22701 0.148406,0.0834 0.840799,0.28265 0.435735,0.12244 0.701949,0.2839 0.265721,0.15822 0.406161,0.38515 0.139948,0.2237 0.189639,0.5505 z"
           style="font-weight:800;font-size:6.70278px;font-family:'Open Sans';-inkscape-font-specification:'Open Sans Ultra-Bold';fill:#007cb0;fill-opacity:1"
           id="path1815" />
        <path
           d="m 94.197336,209.46194 q -0.06973,-0.29628 0.06556,-0.49287 0.13773,-0.20053 0.469053,-0.2785 0.315394,-0.0742 0.521731,0.0453 0.206336,0.11955 0.275316,0.41264 0.06748,0.28673 -0.0695,0.49044 -0.134544,0.19978 -0.44038,0.27176 -0.31858,0.075 -0.53766,-0.0416 -0.216644,-0.12048 -0.284124,-0.40721 z"
           style="font-weight:800;font-size:6.70278px;font-family:'Open Sans';-inkscape-font-specification:'Open Sans Ultra-Bold';fill:#007cb0;fill-opacity:1"
           id="path1817" />
        <path
           d="m 100.04899,208.22735 -2.263388,-2.77699 -0.02705,0.0117 q 0.410469,0.77819 0.604887,1.22898 l 0.823034,1.90834 -1.05184,0.45364 -1.894923,-4.39369 1.580766,-0.68175 2.261971,2.72414 0.024,-0.0104 -0.446794,-3.507 1.583774,-0.68305 1.89492,4.39369 -1.09091,0.47049 -0.83081,-1.92637 q -0.0376,-0.0872 -0.13786,-0.33618 -0.0964,-0.24001 -0.34847,-0.91542 l -0.0271,0.0117 0.47567,3.54088 z"
           style="font-weight:800;font-size:6.70278px;font-family:'Open Sans';-inkscape-font-specification:'Open Sans Ultra-Bold';fill:#007cb0;fill-opacity:1"
           id="path1819" />
        <path
           d="m 106.48004,204.73557 -0.68757,-0.62206 -1.30171,0.8499 0.28746,0.88329 -1.18936,0.77653 -1.31942,-4.87646 1.44422,-0.94293 3.95025,3.15878 z m -1.492,-1.36324 -0.60207,-0.54499 q -0.2367,-0.21287 -0.53994,-0.49174 -0.3023,-0.2834 -0.41642,-0.40432 0.0506,0.1194 0.20468,0.52302 0.15659,0.42543 0.50147,1.47448 z"
           style="font-weight:800;font-size:6.70278px;font-family:'Open Sans';-inkscape-font-specification:'Open Sans Ultra-Bold';fill:#007cb0;fill-opacity:1"
           id="path1821" />
        <path
           d="m 107.17985,199.3399 q -0.2303,0.199 -0.28743,0.47329 -0.0546,0.27214 0.0659,0.59186 0.1209,0.31511 0.40978,0.64942 0.90302,1.04503 1.69794,0.35814 0.2204,-0.19045 0.38663,-0.43357 0.16656,-0.24774 0.33524,-0.58815 l 0.71471,0.82712 q -0.27985,0.59218 -0.85189,1.08649 -0.54481,0.47077 -1.10772,0.58519 -0.56292,0.11443 -1.11591,-0.13007 -0.55299,-0.24451 -1.0687,-0.84132 -0.48574,-0.56214 -0.64083,-1.17211 -0.15509,-0.60997 0.0421,-1.18265 0.20183,-0.57234 0.73673,-1.03455 0.58938,-0.50929 1.34221,-0.71429 l 0.36585,1.02908 q -0.32445,0.09 -0.56931,0.20214 -0.24237,0.10995 -0.45534,0.29398 z"
           style="font-weight:800;font-size:6.70278px;font-family:'Open Sans';-inkscape-font-specification:'Open Sans Ultra-Bold';fill:#007cb0;fill-opacity:1"
           id="path1823" />
        <path
           d="m 114.04455,197.66268 -0.86604,0.96861 -1.45413,-1.30015 -1.00129,1.11988 1.45413,1.30015 -0.86604,0.96861 -3.56702,-3.18929 0.86604,-0.96861 1.32239,1.18235 1.00128,-1.11988 -1.32238,-1.18235 0.86604,-0.96861 z"
           style="font-weight:800;font-size:6.70278px;font-family:'Open Sans';-inkscape-font-specification:'Open Sans Ultra-Bold';fill:#007cb0;fill-opacity:1"
           id="path1825" />
        <path
           d="m 116.34461,194.4236 -0.8716,-0.31626 -0.88425,1.27862 0.5998,0.70927 -0.80793,1.16826 -3.06363,-4.01682 0.98105,-1.4186 4.85076,1.43266 z m -1.8964,-0.69869 -0.76332,-0.27719 q -0.29958,-0.10769 -0.68569,-0.25136 -0.38694,-0.14822 -0.53829,-0.21708 0.0919,0.0915 0.38707,0.40697 0.30569,0.33476 1.02127,1.17583 z"
           style="font-weight:800;font-size:6.70278px;font-family:'Open Sans';-inkscape-font-specification:'Open Sans Ultra-Bold';fill:#007cb0;fill-opacity:1"
           id="path1827" />
        <path
           d="m 116.47175,190.82913 1.53139,0.82853 -0.61516,1.13703 -4.20844,-2.27689 0.74598,-1.37883 q 0.9282,-1.71562 2.17173,-1.04283 0.72828,0.39402 0.74504,1.32593 l 2.49708,-0.23421 -0.6977,1.28959 -2.01418,0.0638 z m -0.85493,-0.46254 0.11525,-0.21301 q 0.32238,-0.59586 -0.2044,-0.88086 -0.43466,-0.23517 -0.75081,0.34918 l -0.12147,0.22453 z"
           style="font-weight:800;font-size:6.70278px;font-family:'Open Sans';-inkscape-font-specification:'Open Sans Ultra-Bold';fill:#007cb0;fill-opacity:1"
           id="path1829" />
        <path
           d="m 120.60978,186.05926 -0.92,-0.11533 -0.57904,1.44274 0.74203,0.55878 -0.52906,1.31821 -3.87735,-3.23835 0.64243,-1.60068 5.04761,0.3225 z m -2.00406,-0.26123 -0.80576,-0.10121 q -0.31599,-0.0387 -0.72433,-0.0932 -0.41017,-0.0588 -0.57301,-0.0924 0.10993,0.0688 0.46761,0.3111 0.37225,0.25873 1.25637,0.92038 z"
           style="font-weight:800;font-size:6.70278px;font-family:'Open Sans';-inkscape-font-specification:'Open Sans Ultra-Bold';fill:#007cb0;fill-opacity:1"
           id="path1831" />
      </g>
      <g
         aria-label="BRANDÝS n.L. - STARÁ BOLESLAV"
         id="text982"
         style="font-weight:800;font-size:6.70278px;line-height:125%;font-family:'Open Sans';-inkscape-font-specification:'Open Sans Ultra-Bold';letter-spacing:0px;word-spacing:0px;fill:#007cb0;stroke-width:0.264583px;fill-opacity:1">
        <path
           d="m 47.724994,187.51763 0.653573,1.53588 q 0.383173,0.90044 0.299686,1.44815 -0.08349,0.54771 -0.643628,0.78608 -0.243932,0.1038 -0.482868,0.10233 -0.237653,0.002 -0.442822,-0.0961 -0.202157,-0.0989 -0.337484,-0.28321 l -0.03012,0.0128 q 0.06331,0.44968 -0.107193,0.74276 -0.170502,0.29308 -0.580068,0.46736 -0.394508,0.16788 -0.773768,0.0874 -0.377978,-0.0775 -0.696047,-0.39028 -0.313777,-0.31108 -0.532916,-0.82605 l -0.729182,-1.71355 z m -1.18326,1.90848 0.1525,0.35837 q 0.11021,0.25899 0.274563,0.35267 0.167364,0.0924 0.372147,0.005 0.370416,-0.15763 0.132054,-0.71777 l -0.142248,-0.33428 z m -0.870328,0.37036 -0.924534,0.39342 0.17813,0.4186 q 0.237081,0.55713 0.706877,0.35722 0.21984,-0.0935 0.273213,-0.29411 0.05465,-0.19754 -0.06581,-0.48062 z"
           id="path1834"
           style="fill:#007cb0;fill-opacity:1" />
        <path
           d="m 47.301392,193.82733 -1.528424,0.83398 -0.619218,-1.13482 4.200293,-2.29189 0.750899,1.37615 q 0.934314,1.7123 -0.306812,2.38952 -0.726864,0.39661 -1.517855,-0.0964 l -1.162272,2.22248 -0.702303,-1.2871 1.042456,-1.7246 z m 0.853274,-0.46559 0.116005,0.2126 q 0.324502,0.5947 0.850257,0.30783 0.433819,-0.23672 0.115588,-0.81993 l -0.122276,-0.22409 z"
           id="path1836"
           style="fill:#007cb0;fill-opacity:1" />
        <path
           d="m 48.994263,199.93369 0.614632,-0.69421 -0.863836,-1.2925 -0.880148,0.29693 -0.789273,-1.18094 4.861992,-1.37176 0.958404,1.434 -3.116135,3.98398 z m 1.34713,-1.50656 0.538483,-0.6079 q 0.210315,-0.23897 0.485908,-0.54519 0.280133,-0.30532 0.399818,-0.42074 -0.118851,0.0519 -0.520789,0.21029 -0.42372,0.16115 -1.469005,0.51729 z"
           id="path1838"
           style="fill:#007cb0;fill-opacity:1" />
        <path
           d="m 53.001328,205.03304 -1.081557,-1.30552 1.480954,-3.49644 -0.01879,-0.0227 q -0.557642,0.54273 -0.895364,0.82252 l -1.660884,1.37595 -0.730782,-0.8821 3.684693,-3.05259 1.077382,1.30048 -1.449846,3.46216 0.01253,0.0151 q 0.547919,-0.51343 0.865478,-0.77651 l 1.665925,-1.38013 0.734958,0.88714 z"
           id="path1840"
           style="fill:#007cb0;fill-opacity:1" />
        <path
           d="m 58.36959,206.81715 q -0.550659,0.56929 -1.15383,0.76448 -0.600819,0.19747 -1.207948,0.0155 -0.607129,-0.18201 -1.178763,-0.73495 l -1.112688,-1.07629 3.32671,-3.43922 1.190318,1.15138 q 0.550462,0.53246 0.751945,1.09618 0.206111,0.56364 0.05117,1.12866 -0.154939,0.56501 -0.666916,1.0943 z m -0.996342,-0.9 q 0.457366,-0.47283 0.489892,-0.88305 0.03488,-0.40794 -0.346211,-0.77657 l -0.270527,-0.26167 -1.863595,1.92662 0.207012,0.20024 q 0.421081,0.4073 0.85533,0.35379 0.436601,-0.0512 0.928099,-0.55936 z"
           id="path1842"
           style="fill:#007cb0;fill-opacity:1" />
        <path
           d="m 56.88937,208.84277 z m 3.607944,-1.00097 1.742413,-0.8893 1.103452,0.86288 -3.036424,1.3274 -1.151184,1.47213 -1.026107,-0.8024 1.126991,-1.44119 0.580429,-3.29781 1.108608,0.86691 z m 0.789764,-2.12036 0.05847,-0.0748 q 0.695515,-0.10841 0.934745,-0.154 0.204493,-0.0437 0.348698,-0.0846 l 1.103452,0.86288 -0.04234,0.0541 q -0.330688,0.003 -0.891222,-0.0239 -0.560534,-0.027 -0.84148,-0.0556 z"
           id="path1844"
           style="fill:#007cb0;fill-opacity:1" />
        <path
           d="m 64.262174,212.30343 q -0.238537,0.37579 -0.617878,0.54591 -0.374824,0.16912 -0.833003,0.10312 -0.468223,-0.0685 -0.946253,-0.37193 -0.400661,-0.25432 -0.639137,-0.48322 -0.236721,-0.23167 -0.445694,-0.56202 l 0.61739,-0.97264 q 0.21051,0.35846 0.489738,0.66363 0.280982,0.3024 0.562826,0.48131 0.23487,0.14908 0.401788,0.14262 0.171435,-0.007 0.259133,-0.14564 0.05086,-0.0801 0.04524,-0.16898 -0.0039,-0.0916 -0.06401,-0.22283 -0.07598,-0.14902 -0.373949,-0.60176 -0.277355,-0.42415 -0.369313,-0.71899 -0.09196,-0.29484 -0.04835,-0.57728 0.04536,-0.28521 0.231277,-0.5781 0.233275,-0.36751 0.584024,-0.51701 0.352503,-0.15227 0.784588,-0.0757 0.432086,0.0766 0.904589,0.37649 0.630005,0.3999 1.095188,1.10221 l -0.869299,0.63054 q -0.398817,-0.61754 -0.813294,-0.88063 -0.204475,-0.12979 -0.352316,-0.12285 -0.145077,0.009 -0.218743,0.12476 -0.07366,0.11605 -0.01071,0.29169 0.05716,0.16033 0.448437,0.76533 0.248186,0.3785 0.342907,0.6751 0.09647,0.29382 0.05335,0.55719 -0.04137,0.2606 -0.218519,0.53968 z"
           id="path1846"
           style="fill:#007cb0;fill-opacity:1" />
        <path
           d="m 67.737082,215.63645 0.827383,-1.84565 q 0.153963,-0.34345 0.130382,-0.55487 -0.02224,-0.21441 -0.234282,-0.30947 -0.200095,-0.0897 -0.369399,-0.0401 -0.167965,0.0466 -0.327797,0.25117 -0.158492,0.20154 -0.32986,0.58381 l -0.664048,1.48129 -1.167715,-0.52347 1.516869,-3.38369 0.881013,0.39495 -0.0411,0.48371 0.06869,0.0308 q 0.25509,-0.16899 0.571453,-0.17063 0.317702,-0.005 0.664134,0.15067 0.373311,0.16735 0.573506,0.43284 0.200196,0.26549 0.214712,0.60914 0.01586,0.34067 -0.159528,0.7319 l -0.986701,2.20104 z"
           id="path1848"
           style="fill:#007cb0;fill-opacity:1" />
        <path
           d="m 69.763876,215.87208 q 0.102336,-0.28666 0.3227,-0.37827 0.224547,-0.0936 0.545107,0.0208 0.305149,0.10894 0.413491,0.32138 0.108343,0.21243 0.0071,0.496 -0.09904,0.27741 -0.324682,0.37409 -0.221465,0.0947 -0.517366,-0.011 -0.308231,-0.11004 -0.428903,-0.32687 -0.116489,-0.21882 -0.01745,-0.49623 z"
           id="path1850"
           style="fill:#007cb0;fill-opacity:1" />
        <path
           d="m 71.629917,217.1125 1.289092,-4.60797 1.244973,0.34828 -1.007819,3.60254 1.774481,0.49642 -0.281273,1.00543 z"
           id="path1852"
           style="fill:#007cb0;fill-opacity:1" />
        <path
           d="m 75.283607,217.51607 q 0.06176,-0.29804 0.267359,-0.41921 0.209466,-0.12371 0.542761,-0.0546 0.317271,0.0657 0.453918,0.26118 0.136648,0.19544 0.07555,0.49028 -0.05977,0.28842 -0.269899,0.41534 -0.206262,0.12438 -0.513918,0.0606 -0.320476,-0.0664 -0.469943,-0.2645 -0.145597,-0.20063 -0.08583,-0.48906 z"
           id="path1854"
           style="fill:#007cb0;fill-opacity:1" />
        <path
           d="m 78.807622,217.40737 0.122094,-1.0138 1.83589,0.2211 -0.122095,1.0138 z"
           id="path1856"
           style="fill:#007cb0;fill-opacity:1" />
        <path
           d="m 86.040986,217.70949 q -0.0096,0.445 -0.24615,0.7869 -0.233194,0.33869 -0.659392,0.51935 -0.436084,0.18372 -1.002154,0.1715 -0.474451,-0.0103 -0.796973,-0.0827 -0.322452,-0.0757 -0.672232,-0.25022 l 0.02488,-1.15177 q 0.365646,0.19776 0.762507,0.31437 0.396932,0.11332 0.730684,0.12053 0.278127,0.006 0.417603,-0.0859 0.14282,-0.0951 0.146354,-0.25873 0.002,-0.0949 -0.04875,-0.168 -0.05073,-0.0764 -0.170098,-0.15754 -0.142134,-0.0882 -0.631411,-0.32136 -0.45684,-0.21937 -0.688118,-0.42406 -0.231279,-0.20469 -0.340147,-0.46893 -0.108798,-0.26751 -0.101306,-0.61435 0.0094,-0.43518 0.232143,-0.74464 0.222813,-0.31273 0.632155,-0.47084 0.409342,-0.15811 0.968868,-0.14602 0.746034,0.0161 1.507551,0.37629 l -0.417479,0.98943 q -0.66086,-0.32199 -1.151672,-0.33259 -0.242133,-0.005 -0.365038,0.0772 -0.119632,0.0825 -0.122601,0.21996 -0.003,0.13743 0.141801,0.25513 0.131894,0.10761 0.779807,0.42277 0.408253,0.19542 0.642804,0.40017 0.234621,0.20149 0.334026,0.44915 0.09948,0.2444 0.09234,0.57488 z"
           id="path1858"
           style="fill:#007cb0;fill-opacity:1" />
        <path
           d="m 88.859879,219.02425 -1.290801,0.0714 -0.205761,-3.72209 -1.166623,0.0645 -0.05835,-1.05551 3.62078,-0.20016 0.05835,1.05551 -1.163355,0.0643 z"
           id="path1860"
           style="fill:#007cb0;fill-opacity:1" />
        <path
           d="m 93.61035,218.4685 -0.364669,-0.85248 -1.537776,0.2281 -0.107994,0.92259 -1.405041,0.2084 0.839316,-4.98159 1.706121,-0.25306 2.268609,4.52059 z m -0.785723,-1.86203 -0.319206,-0.74672 q -0.126074,-0.29232 -0.285018,-0.6724 -0.156188,-0.38379 -0.209335,-0.54134 -0.0039,0.12962 -0.03264,0.56069 -0.03553,0.45194 -0.160643,1.54912 z"
           id="path1862"
           style="fill:#007cb0;fill-opacity:1" />
        <path
           d="m 96.330798,216.11783 0.434232,1.68614 -1.251924,0.32241 -1.193321,-4.63371 1.518155,-0.39097 q 1.888979,-0.48647 2.241588,0.88272 0.206505,0.80187 -0.465241,1.44801 l 1.870111,1.67122 -1.419903,0.36567 -1.416754,-1.43311 z m -0.242419,-0.94132 0.234538,-0.0604 q 0.656071,-0.16896 0.506702,-0.74896 -0.12325,-0.47859 -0.766644,-0.31289 l -0.247215,0.0637 z"
           id="path1864"
           style="fill:#007cb0;fill-opacity:1" />
        <path
           d="m 99.413429,217.13312 z m 3.229281,-1.22226 -0.53783,-0.75528 -1.45394,0.55031 0.0909,0.92442 -1.328441,0.50281 -0.240668,-5.04607 1.613109,-0.61055 3.17916,3.93387 z m -1.16419,-1.65202 -0.47089,-0.66163 q -0.18542,-0.25877 -0.42165,-0.59629 -0.23433,-0.34174 -0.3198,-0.48435 0.0237,0.12748 0.0875,0.55478 0.0615,0.44914 0.17289,1.5478 z m -2.266005,-2.57527 -0.0336,-0.0888 q 0.268066,-0.65087 0.353174,-0.87905 0.06873,-0.19748 0.108509,-0.34202 l 1.31008,-0.49585 0.0243,0.0643 q -0.16883,0.28436 -0.48266,0.74959 -0.31384,0.46522 -0.48399,0.6906 z"
           id="path1866"
           style="fill:#007cb0;fill-opacity:1" />
        <path
           d="m 103.6381,210.23628 1.45306,-0.82139 q 0.85189,-0.48155 1.40551,-0.4599 0.55361,0.0217 0.85318,0.5516 0.13045,0.23078 0.15573,0.46837 0.0281,0.23599 -0.0459,0.4508 -0.0757,0.21196 -0.24366,0.36707 l 0.0161,0.0285 q 0.43976,-0.11325 0.75009,0.0234 0.31032,0.13662 0.52935,0.5241 0.21099,0.37324 0.17347,0.75913 -0.0347,0.38427 -0.30991,0.73535 -0.27401,0.34663 -0.76121,0.62204 l -1.62116,0.9164 z m 2.02893,0.9622 0.33905,-0.19166 q 0.24502,-0.13851 0.31971,-0.31231 0.0731,-0.17666 -0.0364,-0.3704 -0.1981,-0.35044 -0.72804,-0.0509 l -0.31626,0.17877 z m 0.46545,0.8234 0.49444,0.87468 0.39603,-0.22386 q 0.52709,-0.29796 0.27585,-0.74242 -0.11758,-0.20799 -0.32284,-0.23858 -0.20242,-0.0322 -0.47024,0.11919 z"
           id="path1868"
           style="fill:#007cb0;fill-opacity:1" />
        <path
           d="m 112.1177,207.57035 q 0.71046,0.97659 0.60109,1.83323 -0.10936,0.85664 -1.03302,1.52859 -0.60607,0.44091 -1.19246,0.51943 -0.58832,0.0759 -1.1288,-0.21086 -0.54241,-0.2894 -1.01412,-0.93781 -0.70276,-0.96601 -0.59075,-1.82457 0.11273,-0.86314 1.03375,-1.53317 0.92366,-0.67195 1.76779,-0.51302 0.84413,0.15894 1.55652,1.13818 z m -2.66248,1.93692 q 0.81636,1.12215 1.5971,0.55417 0.39699,-0.28881 0.38923,-0.70003 -0.005,-0.41315 -0.42484,-0.99011 -0.41973,-0.57696 -0.81509,-0.7143 -0.39537,-0.13734 -0.78442,0.14569 -0.78603,0.57183 0.038,1.70458 z"
           id="path1870"
           style="fill:#007cb0;fill-opacity:1" />
        <path
           d="m 114.17221,208.92698 -3.19737,-3.55979 0.96178,-0.86385 2.49972,2.78306 1.37083,-1.23127 0.69765,0.77672 z"
           id="path1872"
           style="fill:#007cb0;fill-opacity:1" />
        <path
           d="m 118.99853,204.22198 -1.9547,2.06142 -3.47211,-3.29237 1.95469,-2.06142 0.75285,0.71388 -1.06518,1.12333 0.54623,0.51795 0.98636,-1.04021 0.75284,0.71387 -0.98635,1.04021 0.65547,0.62154 1.06518,-1.12333 z"
           id="path1874"
           style="fill:#007cb0;fill-opacity:1" />
        <path
           d="m 120.39504,200.24348 q 0.34532,0.28084 0.46992,0.67747 0.12413,0.39203 0.005,0.83935 -0.12277,0.457 -0.48001,0.89627 -0.29943,0.36818 -0.55465,0.57826 -0.25775,0.20801 -0.61027,0.37692 l -0.89378,-0.72688 q 0.38061,-0.16715 0.71634,-0.40879 0.33318,-0.24369 0.54381,-0.50268 0.17552,-0.21583 0.18862,-0.38236 0.0126,-0.17113 -0.11434,-0.27438 -0.0736,-0.0599 -0.16253,-0.0647 -0.0914,-0.007 -0.22879,0.0375 -0.15688,0.058 -0.64135,0.30102 -0.45367,0.22586 -0.75724,0.28271 -0.30357,0.0569 -0.57898,-0.0195 -0.27794,-0.0784 -0.54709,-0.29729 -0.33771,-0.27464 -0.44518,-0.64047 -0.11,-0.36788 0.0166,-0.78805 0.12656,-0.42017 0.47968,-0.85437 0.47082,-0.57892 1.2227,-0.9588 l 0.52458,0.93706 q -0.65994,0.32388 -0.96969,0.70475 -0.15281,0.1879 -0.1632,0.33554 -0.008,0.1451 0.0983,0.23183 0.10665,0.0867 0.28844,0.0447 0.16592,-0.038 0.81252,-0.35587 0.40492,-0.20223 0.71056,-0.26162 0.30309,-0.0615 0.55961,0.0122 0.25397,0.0716 0.51043,0.28012 z"
           id="path1876"
           style="fill:#007cb0;fill-opacity:1" />
        <path
           d="m 121.95839,200.56169 -3.92853,-2.73164 0.73803,-1.0614 3.07134,2.13561 1.05193,-1.51283 0.85718,0.59603 z"
           id="path1878"
           style="fill:#007cb0;fill-opacity:1" />
        <path
           d="m 125.63667,194.80269 -0.89436,-0.24459 -0.77774,1.34607 0.65531,0.65833 -0.7106,1.22989 -3.37906,-3.75535 0.86287,-1.49343 4.9509,1.03486 z m -1.94679,-0.54271 -0.78327,-0.21443 q -0.30731,-0.0831 -0.7038,-0.19497 -0.39768,-0.11638 -0.55411,-0.17274 0.0991,0.0837 0.41878,0.37426 0.33181,0.30888 1.11319,1.0892 z"
           id="path1880"
           style="fill:#007cb0;fill-opacity:1" />
        <path
           d="m 123.31214,188.683 0.59634,-1.31796 3.71316,3.40078 -0.62737,1.38655 -5.00297,-0.55017 0.59904,-1.32393 2.47801,0.40636 q 0.83208,0.15377 1.11748,0.26135 -0.18572,-0.10558 -0.46586,-0.30419 -0.28178,-0.20293 -0.46026,-0.34834 z"
           id="path1882"
           style="fill:#007cb0;fill-opacity:1" />
      </g>
    </g>
  </g>
</svg>
